# 3ds Max Wavefront OBJ Exporter v0.97b - (c)2007 guruware
# File Created: 18.12.2019 04:05:36

mtllib Rock_2.mtl

#
# object Rock_2
#

v  -12.5400 -1.7157 44.7616
v  -23.3925 -1.7157 18.5530
v  -25.7920 -1.7157 -14.3021
v  -7.1059 -1.7157 -31.0803
v  35.2358 -1.7157 -15.8449
v  36.6452 -1.7157 0.8006
v  34.9111 -1.7157 2.5349
v  34.9111 -1.7157 22.7131
v  10.1094 -1.7157 37.5459
v  12.0987 19.1386 41.4513
v  38.8425 21.9566 4.8446
v  43.9934 27.4330 0.7759
v  44.8489 19.1386 26.2363
v  43.9934 31.1742 -25.0720
v  -31.1498 19.1386 -17.6075
v  -8.1242 22.0084 -36.9531
v  -15.8698 13.3819 50.4944
v  -29.9964 21.6008 13.2807
v  42.7195 30.1828 -1.0999
v  33.0282 31.0031 -16.1016
v  -11.2030 24.7581 -33.0992
v  10.8247 19.8707 39.5755
# 22 vertices

vn -0.2736 -0.7326 0.6233
vn -0.6416 -0.7476 0.1715
vn -0.6423 -0.7255 -0.2473
vn -0.1387 -0.6986 -0.7019
vn 0.5463 -0.7362 -0.3994
vn 0.6571 -0.7079 0.2590
vn 0.7646 0.5583 0.3220
vn 0.5383 -0.7764 0.3279
vn 0.2695 -0.7542 0.5987
vn 0.1942 0.5629 0.8034
vn 0.8929 -0.0947 0.4402
vn 0.9098 0.1777 0.3751
vn 0.8495 0.3577 0.3880
vn 0.6657 0.5032 -0.5511
vn -0.8297 0.4134 -0.3751
vn -0.2958 0.2980 -0.9076
vn -0.4304 0.3275 0.8411
vn -0.5314 0.8381 0.1233
vn 0.6513 0.7547 -0.0789
vn -0.1120 0.9924 0.0517
vn -0.9145 0.2956 -0.2764
vn -0.8047 0.3145 0.5036
# 22 vertex normals

vt 1.0000 0.0000 0.0000
vt 1.0000 0.3857 0.0000
vt 1.0000 1.0000 0.0000
vt 0.6236 1.0000 0.0000
vt 0.0000 1.0000 0.0000
vt 0.0000 0.5039 0.0000
vt 0.0000 0.4013 0.0000
vt 0.0000 0.0000 0.0000
vt 0.5118 0.0000 0.0000
vt 0.5187 0.0000 0.0000
vt 1.0000 0.3883 0.0000
vt 1.0000 0.4845 0.0000
vt 0.4882 0.0000 0.0000
vt 0.5187 1.0000 0.0000
vt 0.5039 0.0000 0.0000
vt 0.4845 1.0000 0.0000
vt 0.6236 0.0000 0.0000
vt 0.6046 1.0000 0.0000
vt 0.6143 0.0000 0.0000
vt 0.5196 1.0000 0.0000
vt 0.3883 1.0000 0.0000
vt 0.4013 0.0000 0.0000
vt 0.3954 1.0000 0.0000
vt 0.0000 0.4804 0.0000
# 24 texture coords

o Rock_2
g Rock_2
usemtl wire_135059008
s off
f 1/1/1 2/2/2 3/3/3 4/4/4 5/5/5 6/6/6 7/7/7 8/8/8 9/9/9 
f 10/10/10 11/11/11 12/12/12 
f 9/13/9 8/1/8 13/3/13 10/14/10 
f 6/15/6 5/1/5 14/3/14 12/16/12 
f 4/17/4 3/1/3 15/3/15 16/18/16 
f 2/19/2 1/1/1 17/3/17 18/20/18 
f 10/14/10 17/5/17 1/8/1 9/13/9 
f 12/16/12 11/21/11 7/22/7 6/15/6 
f 11/21/11 13/5/13 8/8/8 7/22/7 
f 16/18/16 14/5/14 5/8/5 4/17/4 
f 18/20/18 15/5/15 3/8/3 2/19/2 
f 19/12/19 20/3/20 21/23/21 22/10/22 
f 10/10/10 13/1/13 11/11/11 
f 16/23/16 15/5/15 18/24/18 17/8/17 
f 16/23/16 17/8/17 10/10/10 
f 14/3/14 16/23/16 21/23/21 20/3/20 
f 16/23/16 10/10/10 22/10/22 21/23/21 
f 10/10/10 12/12/12 19/12/19 22/10/22 
f 12/12/12 14/3/14 20/3/20 19/12/19 
# 16 polygons - 3 triangles

