# 3ds Max Wavefront OBJ Exporter v0.97b - (c)2007 guruware
# File Created: 18.12.2019 04:05:49

mtllib Rock_3.mtl

#
# object Rock_3
#

v  -4.1571 -1.7157 21.1710
v  -23.3925 -1.7157 18.5530
v  -25.7920 -1.7157 -14.3021
v  -7.1059 -1.7157 -31.0803
v  35.2358 -1.7157 -15.8449
v  36.6452 -1.7157 0.8006
v  34.9111 -1.7157 2.5349
v  34.9111 -1.7157 22.7131
v  10.1094 -1.7157 37.5459
v  12.0987 43.2940 41.4513
v  42.1894 45.0099 2.2009
v  43.9934 51.5885 0.7759
v  40.6141 16.1179 17.2982
v  44.8489 29.3606 13.2773
v  11.1538 21.9164 39.5964
v  42.7104 46.9725 -23.7202
v  43.9934 55.3296 -25.0720
v  43.0938 45.0630 0.7789
v  -28.4339 20.4782 -15.9320
v  -31.1498 43.2940 -17.6075
v  -19.5588 44.7387 -27.3460
v  -8.1242 46.1638 -36.9531
v  -7.5325 18.3429 -33.5406
v  -6.2891 23.4162 24.8415
v  -7.4870 37.5374 26.9039
v  -21.3534 42.6004 18.5116
v  -34.2420 36.9374 13.2807
v  -26.3312 19.4090 16.2068
v  38.8425 32.8053 4.8446
v  37.1757 18.1694 3.8654
v  37.6599 59.2343 -1.0999
v  41.9876 61.1172 -14.2003
v  6.5340 52.0398 -26.0776
v  14.6899 51.3225 21.3508
v  40.9085 40.3390 3.2127
v  40.2968 24.7731 0.7883
v  40.9876 17.5571 -19.1770
v  39.7493 20.5384 -19.4445
v  43.7822 40.4230 -22.6608
v  40.3102 43.9360 -23.2291
v  40.7870 42.3588 0.7802
v  40.2414 42.6308 2.0256
v  42.4030 40.0519 0.7812
v  -7.3790 11.1232 -32.6551
v  -27.2813 10.7958 -15.2209
v  -25.4893 13.3566 16.8790
v  -5.4306 13.2967 23.3636
v  10.6731 11.0385 38.6525
v  37.5609 6.5703 20.1972
v  36.1569 11.5642 17.6922
v  9.9313 15.9254 36.6138
v  -5.5676 17.8551 22.6541
v  -24.1385 15.8418 15.7645
v  -25.8999 14.5956 -14.0182
v  -7.0729 13.9874 -30.2593
v  -19.3247 45.8444 -27.3559
v  -30.9156 46.0883 -17.6173
v  -29.7623 48.5505 13.2708
v  -21.1193 43.7061 18.5018
# 59 vertices

vn -0.3902 0.5721 0.7214
vn -0.5462 -0.5934 0.5912
vn -0.6897 -0.6709 -0.2724
vn -0.1459 -0.6540 -0.7423
vn 0.5398 -0.7239 -0.4297
vn 0.6930 -0.6709 0.2638
vn 0.7508 0.5808 0.3146
vn 0.6157 -0.6365 0.4644
vn -0.1426 -0.6160 0.7748
vn -0.0017 0.5034 0.8640
vn 0.7727 -0.3526 0.5278
vn 0.9029 0.2681 0.3360
vn 0.8447 -0.4212 0.3304
vn 0.9756 0.2193 -0.0067
vn -0.0334 -0.2431 0.9694
vn 0.7430 -0.3801 -0.5509
vn 0.6689 0.3792 -0.6393
vn 0.8935 -0.3885 0.2251
vn -0.8811 -0.2865 -0.3763
vn -0.8845 -0.0279 -0.4657
vn -0.4049 0.4123 -0.8161
vn -0.2800 0.5410 -0.7930
vn -0.2010 -0.3556 -0.9128
vn -0.4981 -0.2665 0.8251
vn -0.5274 0.4800 0.7010
vn 0.0315 0.4902 0.8711
vn -0.9045 -0.0452 0.4241
vn -0.7277 -0.3557 0.5865
vn 0.9426 0.1163 0.3130
vn 0.9625 -0.1499 0.2260
vn 0.2329 0.9048 0.3565
vn 0.6537 0.7551 0.0506
vn -0.2712 0.9561 -0.1111
vn -0.4025 0.8809 0.2490
vn 0.8202 0.1896 0.5397
vn 0.9498 -0.1182 0.2895
vn 0.8477 -0.0657 -0.5264
vn 0.7636 0.0454 -0.6441
vn 0.8320 0.1830 -0.5237
vn 0.6329 -0.0963 -0.7682
vn 0.9780 0.0114 0.2084
vn 0.8593 -0.1187 0.4975
vn 0.9386 0.2077 0.2755
vn -0.2208 0.2418 -0.9449
vn -0.9061 0.1310 -0.4022
vn -0.7871 0.2578 0.5604
vn -0.5183 -0.0215 0.8549
vn -0.0302 0.1514 0.9880
vn 0.9394 0.0292 0.3416
vn 0.8538 0.0102 0.5206
vn -0.1553 -0.0428 0.9869
vn -0.5020 -0.1436 0.8529
vn -0.7790 0.0883 0.6207
vn -0.9371 -0.0274 -0.3480
vn -0.2678 0.0555 -0.9619
vn 0.4543 0.5129 -0.7284
vn -0.7052 0.6192 -0.3455
vn -0.3239 0.8659 0.3811
vn 0.5426 0.3648 0.7567
# 59 vertex normals

vt 1.0000 0.0000 0.0000
vt 1.0000 0.3857 0.0000
vt 1.0000 1.0000 0.0000
vt 0.6236 1.0000 0.0000
vt 0.0000 1.0000 0.0000
vt 0.0000 0.5039 0.0000
vt 0.0000 0.4013 0.0000
vt 0.0000 0.0000 0.0000
vt 0.5118 0.0000 0.0000
vt 0.5187 0.0000 0.0000
vt 1.0000 0.4508 0.0000
vt 1.0000 0.4845 0.0000
vt 1.0000 0.5739 0.0000
vt 0.5187 1.0000 0.0000
vt 0.5042 0.5250 0.0000
vt 1.0000 0.8535 0.0000
vt 0.4845 1.0000 0.0000
vt 0.4869 0.8776 0.0000
vt 1.0000 0.4931 0.0000
vt 0.8009 1.0000 0.0000
vt 0.6046 1.0000 0.0000
vt 0.6156 0.4189 0.0000
vt 1.0000 0.6403 0.0000
vt 0.7040 1.0000 0.0000
vt 0.5196 1.0000 0.0000
vt 0.5722 0.4450 0.0000
vt 0.0000 0.6403 0.0000
vt 0.4508 1.0000 0.0000
vt 0.3883 1.0000 0.0000
vt 0.0000 0.5739 0.0000
vt 0.3938 0.5760 0.0000
vt 0.0000 0.8535 0.0000
vt 0.0000 0.4931 0.0000
vt 0.3954 1.0000 0.0000
vt 1.0000 0.3883 0.0000
vt 0.1991 1.0000 0.0000
vt 0.0000 0.2960 0.0000
vt 1.0000 0.4269 0.0000
vt 0.4013 0.0000 0.0000
vt 0.5039 0.0000 0.0000
vt 0.4943 0.4969 0.0000
vt 1.0000 0.2781 0.0000
vt 1.0000 0.3901 0.0000
vt 0.0000 0.7387 0.0000
vt 0.0000 0.3901 0.0000
vt 0.0000 0.8003 0.0000
vt 1.0000 0.8003 0.0000
vt 0.4879 0.8268 0.0000
vt 0.4386 1.0000 0.0000
vt 1.0000 0.4386 0.0000
vt 0.4269 1.0000 0.0000
vt 0.4887 0.7836 0.0000
vt 1.0000 0.7387 0.0000
vt 0.0000 0.2781 0.0000
vt 0.6236 0.0000 0.0000
vt 0.6185 0.2682 0.0000
vt 1.0000 0.2780 0.0000
vt 0.0000 0.2780 0.0000
vt 0.6143 0.0000 0.0000
vt 0.5842 0.3175 0.0000
vt 1.0000 0.3825 0.0000
vt 0.0000 0.3825 0.0000
vt 0.4882 0.0000 0.0000
vt 0.4969 0.2834 0.0000
vt 1.0000 0.2666 0.0000
vt 0.0000 0.2666 0.0000
vt 0.0000 0.4273 0.0000
vt 1.0000 0.4273 0.0000
vt 0.5002 0.3919 0.0000
vt 0.0000 0.4986 0.0000
vt 1.0000 0.4986 0.0000
vt 0.5793 0.3699 0.0000
vt 0.0000 0.3624 0.0000
vt 1.0000 0.3624 0.0000
vt 0.6174 0.3280 0.0000
vt 0.0000 0.4804 0.0000
# 76 texture coords

o Rock_3
g Rock_3
usemtl wire_135059008
s off
f 1/1/1 2/2/2 3/3/3 4/4/4 5/5/5 6/6/6 7/7/7 8/8/8 9/9/9 
f 10/10/10 11/11/11 12/12/12 
f 13/13/13 14/3/14 10/14/10 15/15/15 
f 16/16/16 17/3/17 12/17/12 18/18/18 
f 19/19/19 20/3/20 21/20/21 22/21/22 23/22/23 
f 24/23/24 25/3/25 26/24/26 27/25/27 28/26/28 
f 10/14/10 25/5/25 24/27/24 15/15/15 
f 12/17/12 11/28/11 18/18/18 
f 29/29/29 14/5/14 13/30/13 30/31/30 
f 22/21/22 17/5/17 16/32/16 
f 27/25/27 20/5/20 19/33/19 28/26/28 
f 31/12/31 32/3/32 33/34/33 34/10/34 
f 10/10/10 14/1/14 29/35/29 
f 22/34/22 21/36/21 26/37/26 25/8/25 
f 22/34/22 25/8/25 10/10/10 
f 17/3/17 22/34/22 33/34/33 32/3/32 
f 22/34/22 10/10/10 34/10/34 33/34/33 
f 10/10/10 12/12/12 31/12/31 34/10/34 
f 12/12/12 17/3/17 32/3/32 31/12/31 
f 10/10/10 29/35/29 35/38/35 
f 29/29/29 30/31/30 7/39/7 6/40/6 36/41/36 
f 36/41/36 37/42/37 38/43/38 
f 39/44/39 38/45/38 22/21/22 
f 22/21/22 16/32/16 40/46/40 
f 40/47/40 16/16/16 18/18/18 41/48/41 
f 41/48/41 18/18/18 11/28/11 42/49/42 
f 42/50/42 11/11/11 10/10/10 
f 10/10/10 35/38/35 42/50/42 
f 42/49/42 35/51/35 43/52/43 41/48/41 
f 41/48/41 43/52/43 39/53/39 40/47/40 
f 40/46/40 39/44/39 22/21/22 
f 38/43/38 39/53/39 43/52/43 36/41/36 
f 36/41/36 43/52/43 35/51/35 29/29/29 
f 38/45/38 37/54/37 22/21/22 
f 36/41/36 6/40/6 5/1/5 37/42/37 
f 37/54/37 23/22/23 22/21/22 
f 37/54/37 5/8/5 4/55/4 44/56/44 
f 44/56/44 4/55/4 3/1/3 45/57/45 
f 45/58/45 3/8/3 2/59/2 46/60/46 
f 46/60/46 2/59/2 1/1/1 47/61/47 
f 47/62/47 1/8/1 9/63/9 48/64/48 
f 48/64/48 9/63/9 8/1/8 49/65/49 
f 49/66/49 8/8/8 7/39/7 30/31/30 
f 30/31/30 13/30/13 50/67/50 
f 50/68/50 13/13/13 15/15/15 51/69/51 
f 51/69/51 15/15/15 24/27/24 52/70/52 
f 52/71/52 24/23/24 28/26/28 53/72/53 
f 53/72/53 28/26/28 19/33/19 54/73/54 
f 54/74/54 19/19/19 23/22/23 55/75/55 
f 55/75/55 23/22/23 37/54/37 
f 37/54/37 44/56/44 55/75/55 
f 55/75/55 44/56/44 45/57/45 54/74/54 
f 54/73/54 45/58/45 46/60/46 53/72/53 
f 53/72/53 46/60/46 47/61/47 52/71/52 
f 52/70/52 47/62/47 48/64/48 51/69/51 
f 51/69/51 48/64/48 49/65/49 50/68/50 
f 50/67/50 49/66/49 30/31/30 
f 56/36/56 57/5/57 58/76/58 59/37/59 
f 20/5/20 27/76/27 58/76/58 57/5/57 
f 27/76/27 26/37/26 59/37/59 58/76/58 
f 26/37/26 21/36/21 56/36/56 59/37/59 
f 21/36/21 20/5/20 57/5/57 56/36/56 
# 44 polygons - 18 triangles

